CDC
…
    Location = location,
    City = city,
    Country = country,
    Time = utc,
    Local_Time = local,
    Pollutant = parameter,
    Value = value,
    Unit = unit,
    Latitude = latitude,
    Longitude = longitude,
    Etc = attribution
    )
data

## # A tibble: 65,536 x 11
##    Location City  Country Time                Local_Time          Pollutant
##    <chr>    <chr> <chr>   <dttm>              <dttm>              <chr>    
##  1 Burdens~ Durh~ US      2019-09-10 10:00:00 2019-09-10 10:00:00 co       
##  2 Burdens~ Durh~ US      2019-09-10 11:00:00 2019-09-10 11:00:00 co       
##  3 Burdens~ Durh~ US      2019-09-10 12:00:00 2019-09-10 12:00:00 co       
##  4 Burdens~ Durh~ US      2019-09-10 13:00:00 2019-09-10 13:00:00 co       
##  5 Burdens~ Durh~ US      2019-09-10 14:00:00 2019-09-10 14:00:00 co       
##  6 Burdens~ Durh~ US      2019-09-10 15:00:00 2019-09-10 15:00:00 co       
##  7 Burdens~ Durh~ US      2019-09-10 16:00:00 2019-09-10 16:00:00 co       
##  8 Burdens~ Durh~ US      2019-09-10 17:00:00 2019-09-10 17:00:00 co       
##  9 Burdens~ Durh~ US      2019-09-10 18:00:00 2019-09-10 18:00:00 co       
## 10 Burdens~ Durh~ US      2019-09-10 19:00:00 2019-09-10 19:00:00 co       
## # ... with 65,526 more rows, and 5 more variables: Value <dbl>, Unit <chr>,
## #   Latitude <dbl>, Longitude <dbl>, Etc <chr>
…
